﻿<?xml version="1.0" encoding="utf-8"?>
<svg version="1.1" xmlns:xlink="http://www.w3.org/1999/xlink" width="91px" height="19px" xmlns="http://www.w3.org/2000/svg">
  <g transform="matrix(1 0 0 1 -10 -190 )">
    <path d="M 11 191  L 100 191  L 100 208  L 11 208  L 11 191  Z " fill-rule="nonzero" fill="#ffffff" stroke="none" />
  </g>
</svg>